…
``` r
summary(mpg$cty)
```

    ##    Min. 1st Qu.  Median    Mean 3rd Qu.    Max. 
    ##    9.00   14.00   17.00   16.86   19.00   35.00

cty 변수를 보면 평균 16.86, 중위값 17을 보여준다. 여기서 중위값이 17보다 높은 차들만 분류해 보도록 하자.

``` r
filter(mpg, cty > 17)
```

    ## # A tibble: 102 x 11
    ##    manufacturer model    displ  year   cyl trans   drv     cty   hwy fl   
    ##    <chr>        <chr>    <dbl> <int> <int> <chr>   <chr> <int> <int> <chr>
    ##  1 audi         a4        1.80  1999     4 auto(l… f        18    29 p    
    ##  2 audi         a4        1.80  1999     4 manual… f        21    29 p    
    ##  3 audi         a4        2.00  2008     4 manual… f        20    31 p    
    ##  4 audi         a4        2.00  2008     4 auto(a… f        21    30 p    
    ##  5 audi         a4        2.80  1999     6 manual… f        18    26 p    
    ##  6 audi         a4        3.10  2008     6 auto(a… f        18    27 p    
    ##  7 audi         a4 quat…  1.80  1999     4 manual… 4        18    26 p    
    ##  8 audi         a4 quat…  2.00  2008     4 manual… 4        20    28 p    
    ##  9 audi         a4 quat…  2.00  2008     4 auto(s… 4        19    27 p    
    ## 10 chevrolet    malibu    2.40  1999     4 auto(l… f        19    27 r    
    ## # ... with 92 more rows, and 1 more variable: class <chr>
…
1.  hwy가 10 이상인 것들만 추리시오
2.  year가 2000년 이후인 것만 추리시오
3.  cty가 10 미만이고, year가 2000년 미만인 것들만 추리시오. (&를 활용할 것)

### 이산변수 처리

여기서 이산변수가 무엇이지를 잠시 살펴볼 필요가 있다. 앞서 나왔던 hwy나 cty 등은 연속 변수다. 온도나 연비 등은 특정한 기준을 만든 것이 아니라, 그 값을 그저 '측정' 한 것들이다. 키, 몸무게도 마찬가지다. 반면, cyl이나 displ 같은 변수는 기준에 맞춰 숫자를 할당한다. 실린더 기통은 4개이거나 6개이거나 8개일 수밖에 없다. 이런 변수들은 나중에 factor로 분류해 처리할 수도 있다. 하지만 이 부분은 나중에 다루기로 하자.

그렇다면 이산변수는 filter와 어떻게 만날 수 있을 것인가? 예를 들어 cyl이 4인 경우만 추리면 어덯게 하면 될까? 그럴 때는 %in% 를 통해서 변수의 내용을 추릴 수 있다. 아래를 살펴보자.

``` r
filter(mpg, cyl %in% 4)
```

    ## # A tibble: 81 x 11
    ##    manufacturer model    displ  year   cyl trans   drv     cty   hwy fl   
    ##    <chr>        <chr>    <dbl> <int> <int> <chr>   <chr> <int> <int> <chr>
    ##  1 audi         a4        1.80  1999     4 auto(l… f        18    29 p    
    ##  2 audi         a4        1.80  1999     4 manual… f        21    29 p    
    ##  3 audi         a4        2.00  2008     4 manual… f        20    31 p    
    ##  4 audi         a4        2.00  2008     4 auto(a… f        21    30 p    
    ##  5 audi         a4 quat…  1.80  1999     4 manual… 4        18    26 p    
    ##  6 audi         a4 quat…  1.80  1999     4 auto(l… 4        16    25 p    
    ##  7 audi         a4 quat…  2.00  2008     4 manual… 4        20    28 p    
    ##  8 audi         a4 quat…  2.00  2008     4 auto(s… 4        19    27 p    
    ##  9 chevrolet    malibu    2.40  1999     4 auto(l… f        19    27 r    
    ## 10 chevrolet    malibu    2.40  2008     4 auto(l… f        22    30 r    
    ## # ... with 71 more rows, and 1 more variable: class <chr>

물론 %in% 뒤에서 여러 개를 추려서 볼 수도 있다. cyl이 4와 6인 경우를 생각해 보자.

``` r
filter(mpg, cyl %in% c(4, 6))
```

    ## # A tibble: 160 x 11
    ##    manufacturer model    displ  year   cyl trans   drv     cty   hwy fl   
    ##    <chr>        <chr>    <dbl> <int> <int> <chr>   <chr> <int> <int> <chr>
    ##  1 audi         a4        1.80  1999     4 auto(l… f        18    29 p    
    ##  2 audi         a4        1.80  1999     4 manual… f        21    29 p    
    ##  3 audi         a4        2.00  2008     4 manual… f        20    31 p    
    ##  4 audi         a4        2.00  2008     4 auto(a… f        21    30 p    
    ##  5 audi         a4        2.80  1999     6 auto(l… f        16    26 p    
    ##  6 audi         a4        2.80  1999     6 manual… f        18    26 p    
    ##  7 audi         a4        3.10  2008     6 auto(a… f        18    27 p    
    ##  8 audi         a4 quat…  1.80  1999     4 manual… 4        18    26 p    
    ##  9 audi         a4 quat…  1.80  1999     4 auto(l… 4        16    25 p    
    ## 10 audi         a4 quat…  2.00  2008     4 manual… 4        20    28 p    
    ## # ... with 150 more rows, and 1 more variable: class <chr>
…
#### 연습문제

1.  displ이 1.8인 경우만 추려내시오.
2.  displ이 2.0이고 cyl이 6, 8인 경우만 추려내시오.

### 문자열 필터

이번에는 문자열을 다뤄보자. 원리는 똑같다. 해당되는 내용을 요청하면 된다. 예를 들어보자. class가 "suv"인 차들만 필터해보자.

``` r
filter(mpg, class == "suv")
```

    ## # A tibble: 62 x 11
    ##    manufacturer model      displ  year   cyl trans drv     cty   hwy fl   
    ##    <chr>        <chr>      <dbl> <int> <int> <chr> <chr> <int> <int> <chr>
    ##  1 chevrolet    c1500 sub…  5.30  2008     8 auto… r        14    20 r    
    ##  2 chevrolet    c1500 sub…  5.30  2008     8 auto… r        11    15 e    
    ##  3 chevrolet    c1500 sub…  5.30  2008     8 auto… r        14    20 r    
    ##  4 chevrolet    c1500 sub…  5.70  1999     8 auto… r        13    17 r    
    ##  5 chevrolet    c1500 sub…  6.00  2008     8 auto… r        12    17 r    
    ##  6 chevrolet    k1500 tah…  5.30  2008     8 auto… 4        14    19 r    
    ##  7 chevrolet    k1500 tah…  5.30  2008     8 auto… 4        11    14 e    
    ##  8 chevrolet    k1500 tah…  5.70  1999     8 auto… 4        11    15 r    
    ##  9 chevrolet    k1500 tah…  6.50  1999     8 auto… 4        14    17 d    
    ## 10 dodge        durango 4…  3.90  1999     6 auto… 4        13    17 r    
    ## # ... with 52 more rows, and 1 more variable: class <chr>
…
    ## # A tibble: 3 x 11
    ##   manufacturer model displ  year   cyl trans drv     cty   hwy fl    class
    ##   <chr>        <chr> <dbl> <int> <int> <chr> <chr> <int> <int> <chr> <chr>
    ## 1 hyundai      tibu…  2.70  2008     6 auto… f        17    24 r     subc…
    ## 2 hyundai      tibu…  2.70  2008     6 manu… f        16    24 r     subc…
    ## 3 hyundai      tibu…  2.70  2008     6 manu… f        17    24 r     subc…

몇 가지 연산을 더 해겠다. 따라해 보자.

``` r
filter(mpg, year > 2000 & class %in% c("subcompact", "suv")) #2000년 이후, subcompact이거나 suv인 차
```

    ## # A tibble: 49 x 11
    ##    manufacturer model      displ  year   cyl trans drv     cty   hwy fl   
    ##    <chr>        <chr>      <dbl> <int> <int> <chr> <chr> <int> <int> <chr>
    ##  1 chevrolet    c1500 sub…  5.30  2008     8 auto… r        14    20 r    
    ##  2 chevrolet    c1500 sub…  5.30  2008     8 auto… r        11    15 e    
    ##  3 chevrolet    c1500 sub…  5.30  2008     8 auto… r        14    20 r    
    ##  4 chevrolet    c1500 sub…  6.00  2008     8 auto… r        12    17 r    
    ##  5 chevrolet    k1500 tah…  5.30  2008     8 auto… 4        14    19 r    
    ##  6 chevrolet    k1500 tah…  5.30  2008     8 auto… 4        11    14 e    
    ##  7 dodge        durango 4…  4.70  2008     8 auto… 4        13    17 r    
    ##  8 dodge        durango 4…  4.70  2008     8 auto… 4         9    12 e    
    ##  9 dodge        durango 4…  4.70  2008     8 auto… 4        13    17 r    
    ## 10 dodge        durango 4…  5.70  2008     8 auto… 4        13    18 r    
    ## # ... with 39 more rows, and 1 more variable: class <chr>

``` r
filter(mpg, drv %in% "r" | class %in% "suv")
```

    ## # A tibble: 76 x 11
    ##    manufacturer model     displ  year   cyl trans  drv     cty   hwy fl   
    ##    <chr>        <chr>     <dbl> <int> <int> <chr>  <chr> <int> <int> <chr>
    ##  1 chevrolet    c1500 su…  5.30  2008     8 auto(… r        14    20 r    
    ##  2 chevrolet    c1500 su…  5.30  2008     8 auto(… r        11    15 e    
    ##  3 chevrolet    c1500 su…  5.30  2008     8 auto(… r        14    20 r    
    ##  4 chevrolet    c1500 su…  5.70  1999     8 auto(… r        13    17 r    
    ##  5 chevrolet    c1500 su…  6.00  2008     8 auto(… r        12    17 r    
    ##  6 chevrolet    corvette   5.70  1999     8 manua… r        16    26 p    
    ##  7 chevrolet    corvette   5.70  1999     8 auto(… r        15    23 p    
    ##  8 chevrolet    corvette   6.20  2008     8 manua… r        16    26 p    
    ##  9 chevrolet    corvette   6.20  2008     8 auto(… r        15    25 p    
    ## 10 chevrolet    corvette   7.00  2008     8 manua… r        15    24 p    
    ## # ... with 66 more rows, and 1 more variable: class <chr>
…
``` r
mpg %>% 
  select(model, year, class)
```

    ## # A tibble: 234 x 3
    ##    model       year class  
    ##    <chr>      <int> <chr>  
    ##  1 a4          1999 compact
    ##  2 a4          1999 compact
    ##  3 a4          2008 compact
    ##  4 a4          2008 compact
    ##  5 a4          1999 compact
    ##  6 a4          1999 compact
    ##  7 a4          2008 compact
    ##  8 a4 quattro  1999 compact
    ##  9 a4 quattro  1999 compact
    ## 10 a4 quattro  2008 compact
    ## # ... with 224 more rows
select() 명령을 통해 model, year, class 변수를 입력했다. 결과는 행은 그대로 있고, model, year, class 3가지 열만 등장했다.

그런데 보고 싶은 열이 8개이면 어떻게 하는 게 좋을까? 일일이 노가다 하는 게 적성에 맞지 않을 것이다. 전체 열이 11개인 것을 감안하면, 방법은 3가지이다.

1.  보기 싫은 열을 "-"로 제외 - 예: mpg %&gt;% select(-hwy, -fl, -class)
2.  보고 싶은 열을 ":"로 묶기 - 예 : mpg %&gt;% select(manufacturer:cty)
3.  보기 싫은 열을 "-:"로 묶어서 제외 - 예: mpg %&gt;% select(-hwy:-class)

두 가지 방법 다 실험을 해 보자.

``` r
mpg %>% select(-hwy, -fl, -class)
```

    ## # A tibble: 234 x 8
    ##    manufacturer model      displ  year   cyl trans      drv     cty
    ##    <chr>        <chr>      <dbl> <int> <int> <chr>      <chr> <int>
    ##  1 audi         a4          1.80  1999     4 auto(l5)   f        18
    ##  2 audi         a4          1.80  1999     4 manual(m5) f        21
    ##  3 audi         a4          2.00  2008     4 manual(m6) f        20
    ##  4 audi         a4          2.00  2008     4 auto(av)   f        21
    ##  5 audi         a4          2.80  1999     6 auto(l5)   f        16
    ##  6 audi         a4          2.80  1999     6 manual(m5) f        18
    ##  7 audi         a4          3.10  2008     6 auto(av)   f        18
    ##  8 audi         a4 quattro  1.80  1999     4 manual(m5) 4        18
    ##  9 audi         a4 quattro  1.80  1999     4 auto(l5)   4        16
    ## 10 audi         a4 quattro  2.00  2008     4 manual(m6) 4        20
    ## # ... with 224 more rows

``` r
mpg %>% select(manufacturer:cty)
```

    ## # A tibble: 234 x 8
    ##    manufacturer model      displ  year   cyl trans      drv     cty
    ##    <chr>        <chr>      <dbl> <int> <int> <chr>      <chr> <int>
    ##  1 audi         a4          1.80  1999     4 auto(l5)   f        18
    ##  2 audi         a4          1.80  1999     4 manual(m5) f        21
    ##  3 audi         a4          2.00  2008     4 manual(m6) f        20
    ##  4 audi         a4          2.00  2008     4 auto(av)   f        21
    ##  5 audi         a4          2.80  1999     6 auto(l5)   f        16
    ##  6 audi         a4          2.80  1999     6 manual(m5) f        18
    ##  7 audi         a4          3.10  2008     6 auto(av)   f        18
    ##  8 audi         a4 quattro  1.80  1999     4 manual(m5) 4        18
    ##  9 audi         a4 quattro  1.80  1999     4 auto(l5)   4        16
    ## 10 audi         a4 quattro  2.00  2008     4 manual(m6) 4        20
    ## # ... with 224 more rows

``` r
mpg %>% select(-hwy:-class)
```

    ## # A tibble: 234 x 8
    ##    manufacturer model      displ  year   cyl trans      drv     cty
    ##    <chr>        <chr>      <dbl> <int> <int> <chr>      <chr> <int>
    ##  1 audi         a4          1.80  1999     4 auto(l5)   f        18
    ##  2 audi         a4          1.80  1999     4 manual(m5) f        21
    ##  3 audi         a4          2.00  2008     4 manual(m6) f        20
    ##  4 audi         a4          2.00  2008     4 auto(av)   f        21
    ##  5 audi         a4          2.80  1999     6 auto(l5)   f        16
    ##  6 audi         a4          2.80  1999     6 manual(m5) f        18
    ##  7 audi         a4          3.10  2008     6 auto(av)   f        18
    ##  8 audi         a4 quattro  1.80  1999     4 manual(m5) 4        18
    ##  9 audi         a4 quattro  1.80  1999     4 auto(l5)   4        16
    ## 10 audi         a4 quattro  2.00  2008     4 manual(m6) 4        20
    ## # ... with 224 more rows

어느 편이 가장 효율적일지는 그 때 그 때 다르다. 필요한 부분을 잘 추려내는 것은 분명한 능력이다.

마지막으로, 여러가지 방법을 다 섞어서 select를 해보자.

``` r
mpg %>% select(model, year, class, -hwy, -fl)
```

    ## # A tibble: 234 x 3
    ##    model       year class  
    ##    <chr>      <int> <chr>  
    ##  1 a4          1999 compact
    ##  2 a4          1999 compact
    ##  3 a4          2008 compact
    ##  4 a4          2008 compact
    ##  5 a4          1999 compact
    ##  6 a4          1999 compact
    ##  7 a4          2008 compact
    ##  8 a4 quattro  1999 compact
    ##  9 a4 quattro  1999 compact
    ## 10 a4 quattro  2008 compact
    ## # ... with 224 more rows

``` r
mpg %>% select(year, cty:class, -hwy)
```

    ## # A tibble: 234 x 4
    ##     year   cty fl    class  
    ##    <int> <int> <chr> <chr>  
    ##  1  1999    18 p     compact
    ##  2  1999    21 p     compact
    ##  3  2008    20 p     compact
    ##  4  2008    21 p     compact
    ##  5  1999    16 p     compact
    ##  6  1999    18 p     compact
    ##  7  2008    18 p     compact
    ##  8  1999    18 p     compact
    ##  9  1999    16 p     compact
    ## 10  2008    20 p     compact
    ## # ... with 224 more rows

### filter()와 select()의 혼합

이제 좀 더 수를 좁혀보자. filter()와 select()를 함께 사용해보자. 필요한 행과 필요한 열을 추려낼 수 있는 것이다. 이럴 때 어떻게 하면 될까? pipe( %&gt;% )를 두 번 쓰면 된다.

``` r
mpg %>% 
  filter(cty > 20) %>% 
  select(model, year, cty:class)
```

    ## # A tibble: 45 x 6
    ##    model   year   cty   hwy fl    class     
    ##    <chr>  <int> <int> <int> <chr> <chr>     
    ##  1 a4      1999    21    29 p     compact   
    ##  2 a4      2008    21    30 p     compact   
    ##  3 malibu  2008    22    30 r     midsize   
    ##  4 civic   1999    28    33 r     subcompact
    ##  5 civic   1999    24    32 r     subcompact
    ##  6 civic   1999    25    32 r     subcompact
    ##  7 civic   1999    23    29 p     subcompact
    ##  8 civic   1999    24    32 r     subcompact
    ##  9 civic   2008    26    34 r     subcompact
    ## 10 civic   2008    25    36 r     subcompact
    ## # ... with 35 more rows
…
이제 본격적으로 전처리를 수행해 보자.

group\_by()와 summarise()
-------------------------

이런 경우를 생각해 보자. 차종에 따른 연비는 어떻게 다를까? 차종을 filter하고 연비를 filter하는 것이 아니다. 차종에 따른 연비들의 평균이나 합계가 나와줘야 하는 것이다. 엑셀을 쓰다보면 '피벗 테이블(pivot table)'을 쓰는 경우가 있는데, 이 경우가 바로 그렇다. dplyr 패키지는 group\_by()와 summarise()라는 명령어를 통해 이 문제를 해결하게 도와준다.

예를 들어보자. 위에서 언급한 차종에 따른 고속도로 연비 평균을 구해보자. 우선 실행해야 하는 것은 group\_by()이다. group\_by(기준 변수)를 실행한 후 결과를 보자.

``` r
mpg %>% 
  group_by(model)
```

    ## # A tibble: 234 x 11
    ## # Groups:   model [38]
    ##    manufacturer model    displ  year   cyl trans   drv     cty   hwy fl   
    ##    <chr>        <chr>    <dbl> <int> <int> <chr>   <chr> <int> <int> <chr>
    ##  1 audi         a4        1.80  1999     4 auto(l… f        18    29 p    
    ##  2 audi         a4        1.80  1999     4 manual… f        21    29 p    
    ##  3 audi         a4        2.00  2008     4 manual… f        20    31 p    
    ##  4 audi         a4        2.00  2008     4 auto(a… f        21    30 p    
    ##  5 audi         a4        2.80  1999     6 auto(l… f        16    26 p    
    ##  6 audi         a4        2.80  1999     6 manual… f        18    26 p    
    ##  7 audi         a4        3.10  2008     6 auto(a… f        18    27 p    
    ##  8 audi         a4 quat…  1.80  1999     4 manual… 4        18    26 p    
    ##  9 audi         a4 quat…  1.80  1999     4 auto(l… 4        16    25 p    
    ## 10 audi         a4 quat…  2.00  2008     4 manual… 4        20    28 p    
    ## # ... with 224 more rows, and 1 more variable: class <chr>

결과를 보면 "Groups: model \[38\]"이라는 한 줄이 추가되었을 뿐, 특별한 변화가 없다. 하지만 이건 기준을 잡았으니, 다음 연산을 하라는 이야기다. 이제 summarise()를 통해 고속도로 연비(hwy)의 평균을 구해보자.

``` r
mpg %>% 
  group_by(model) %>% 
  summarise(hwy_mean = mean(hwy))
```

    ## # A tibble: 38 x 2
    ##    model              hwy_mean
    ##    <chr>                 <dbl>
    ##  1 4runner 4wd            18.8
    ##  2 a4                     28.3
    ##  3 a4 quattro             25.8
    ##  4 a6 quattro             24.0
    ##  5 altima                 28.7
    ##  6 c1500 suburban 2wd     17.8
    ##  7 camry                  28.3
    ##  8 camry solara           28.1
    ##  9 caravan 2wd            22.4
    ## 10 civic                  32.6
    ## # ... with 28 more rows
…
위의 그래프를 잠시 보자. 어딘가 너저분 하지 않나? 이유는 간단하다. 우리 눈은 내림차순 정렬이든, 오름차순 정렬이든 가지런하게 정리되어 있는 것을 좋아한다. 이런 것을 **정렬된 데이터(sorted data)**라고 한다. dplyr로 이런 저런 연산을 하면서 양념처럼 빼먹으면 안 되는 것이 바로 정렬이다.

아까 실행했던 코드를 하나 띄워보자.

``` r
mpg %>% 
  group_by(model) %>% 
  summarise(hwy_mean = mean(hwy), hwy_sum = sum(hwy))
```

    ## # A tibble: 38 x 3
    ##    model              hwy_mean hwy_sum
    ##    <chr>                 <dbl>   <int>
    ##  1 4runner 4wd            18.8     113
    ##  2 a4                     28.3     198
    ##  3 a4 quattro             25.8     206
    ##  4 a6 quattro             24.0      72
    ##  5 altima                 28.7     172
    ##  6 c1500 suburban 2wd     17.8      89
    ##  7 camry                  28.3     198
    ##  8 camry solara           28.1     197
    ##  9 caravan 2wd            22.4     246
    ## 10 civic                  32.6     293
    ## # ... with 28 more rows

``` r
mpg %>% 
  group_by(model) %>% 
  summarise(hwy_mean = mean(hwy), hwy_sum = sum(hwy)) %>% 
  arrange(hwy_mean)
```

    ## # A tibble: 38 x 3
    ##    model                  hwy_mean hwy_sum
    ##    <chr>                     <dbl>   <int>
    ##  1 ram 1500 pickup 4wd        15.3     153
    ##  2 durango 4wd                16.0     112
    ##  3 k1500 tahoe 4wd            16.2      65
    ##  4 f150 pickup 4wd            16.4     115
    ##  5 land cruiser wagon 4wd     16.5      33
    ##  6 range rover                16.5      66
    ##  7 dakota pickup 4wd          17.0     153
    ##  8 navigator 2wd              17.0      51
    ##  9 expedition 2wd             17.3      52
    ## 10 grand cherokee 4wd         17.6     141
    ## # ... with 28 more rows

``` r
mpg %>% 
  group_by(model) %>% 
  summarise(hwy_mean = mean(hwy), hwy_sum = sum(hwy)) %>% 
  arrange(desc(hwy_mean))
```

    ## # A tibble: 38 x 3
    ##    model        hwy_mean hwy_sum
    ##    <chr>           <dbl>   <int>
    ##  1 corolla          34.0     170
    ##  2 new beetle       32.8     197
    ##  3 civic            32.6     293
    ##  4 jetta            29.1     262
    ##  5 altima           28.7     172
    ##  6 a4               28.3     198
    ##  7 camry            28.3     198
    ##  8 camry solara     28.1     197
    ##  9 sonata           27.7     194
    ## 10 malibu           27.6     138
    ## # ... with 28 more rows
…
